Generate Fake Data for Relational Databases • DataFakeR
…
schema_get_table(sch, "borrowed")
#> # A tibble: 30 × 2
#>    book_id      user_id   
#>    <chr>        <chr>     
#>  1 DormAmus2021 PKPFJGYlKQ
#>  2 SharAmus2021 YiitBNRqgN
#>  3 RyleSymb2020 ZmFaiKZrsn
#>  4 RyleSymb2020 hKKanzSLlW
#>  5 AnasSmil2021 vvTGnzCNAP
#>  6 DormAmus2021 BZcsAzAjzm
#>  7 RyleSymb2020 gEfcYAuUVw
#>  8 SharAmus2021 oVcYOaJXBc
#>  9 HortAmus2020 YDCQQTGlce
#> 10 AnasSmil2021 uLrpKuAFVd
#> # … with 20 more rows
…
