…
``` r
schema_get_table(sch, "borrowed")
#> # A tibble: 30 x 2
#>    book_id      user_id   
#>    <chr>        <chr>     
#>  1 TrisSmil2021 UfulZqPKPF
#>  2 Dr. Lear2021 JGYlKQYiit
#>  3 HortAmus2021 BNRqgNZmFa
#>  4 Dr. Lear2021 iKZrsnhKKa
#>  5 DormAmus2021 nzSLlWvvTG
#>  6 SharAmus2021 nzCNAPBZcs
#>  7 RyleSymb2021 AzAjzmgEfc
#>  8 RyleSymb2021 YAuUVwoVcY
#>  9 AnasSmil2020 <NA>      
#> 10 DormAmus2021 QTGlceuLrp
#> # … with 20 more rows
```
…
